…
``` r
library(ironmarch)
```

### Builders

`build_*()` functions reconcile and merge data from the relevant
`im_core*` and `im_orig*` data frames.

``` r
build_messages()
```

    #> # A tibble: 22,309 x 8
    #>    msg_id msg_topic_id msg_date            msg_post                                                      msg_post_key        msg_author_id msg_ip_address msg_is_first_po…
    #>     <int>        <int> <dttm>              <chr>                                                         <chr>                       <int> <chr>          <lgl>           
    #>  1      1            1 2011-09-16 03:49:58 "<p>The best first post to make on our forums is the one whe… 3320f7f06c422ef0fb…             1 178.140.119.2… TRUE            
    #>  2      2            2 2011-09-16 11:54:08 "\n<p>Who are we hosting this forum from?</p>\n<p>I like it … 9204e4883321af2275…            11 109.78.212.13  TRUE            
    #>  3      3            2 2011-09-16 14:39:59 "<p>Crisis Host - they basically provide hosting for free sp… 12fd0309239711d02b…             1 178.140.119.2… FALSE           
    #>  4      4            2 2011-09-16 15:29:01 "<p>Thank you, I'll make a note of it, I am very impressed b… 0658c6f99ac18d9060…            11 109.78.212.13  FALSE           
    #>  5      5            2 2011-09-16 15:32:58 "<p>If you mean the dark+orange skin then that's a skin I al… 570257864e3cb812ee…             1 178.140.119.2… FALSE           
    #>  6      6            2 2011-09-16 15:44:51 "<p>The functionality mostly, thanks for the info.</p>"       aabeacc8f4ccc579c4…            11 109.78.212.13  FALSE           
    #>  7      7            3 2011-09-17 01:43:49 "<p>I don't see why one would want to resuscitate Religio Ro… a36f67c0d722aa8d1d…            16 152.33.69.70   TRUE            
    #>  8      8            3 2011-09-17 01:59:50 "\n<blockquote data-ipsquote=\"\" class=\"ipsQuote\" data-ip… 327b933d818a39dc6a…            14 71.114.56.45   FALSE           
    #>  9     12            5 2011-09-20 14:20:14 "<p>The best first post to make on our forums is the one whe… 0667258c387129ea0d…             1 178.140.121.11 TRUE            
    #> 10     13            5 2011-09-20 14:42:17 "<p>Done and done. I meant to post something there but i am … de1d7fd2737dd852f5…            20 94.103.203.197 FALSE           
    #> # … with 22,299 more rows

``` r
build_members()
```

    #> # A tibble: 1,542 x 83
    #>    member_id name  member_group_id email joined              ip_address allow_admin_mai…  skin warn_level warn_lastwarn restrict_post bday_day bday_month bday_year
    #>        <int> <chr>           <int> <chr> <dttm>              <chr>      <lgl>            <int>      <int>         <int> <lgl>            <int>      <int>     <int>
    #>  1         1 Алек…               4 slav… 2011-09-12 15:46:59 178.140.1… FALSE                0          0             0 FALSE               28          6         0
    #>  2         2 Phal…              13 illu… 2011-09-12 15:52:30 68.37.21.… TRUE                 0          0             0 FALSE                0          0         0
    #>  3         3 Bloo…              13 rene… 2011-09-12 18:10:11 68.10.255… TRUE                 0          0             0 FALSE                0          0         0
    #>  4         4 Mier…              13 homi… 2011-09-12 20:27:35 82.29.169… FALSE                0          0             0 FALSE                0          0         0
    #>  5         5 Will…              14 tash… 2011-09-12 20:58:17 90.214.15… TRUE                 0          0             0 FALSE                7         12         0
    #>  6         7 Dadd…              13 benj… 2011-09-13 01:22:58 81.141.31… TRUE                 0          0             0 FALSE                3          5      1989
    #>  7         8 Mr. …              13 elei… 2011-09-13 04:24:07 98.198.24… TRUE                 0          0             0 FALSE                9          8      1989
    #>  8         9 Woma…              14 sol.… 2011-09-13 10:27:52 88.147.27… FALSE                0          0             0 FALSE               15         10      1970
    #>  9        11 Four…              13 o244… 2011-09-13 12:14:28 109.77.91… FALSE                0          0             0 FALSE                0          0         0
    #> 10        12 Jami…              14 jami… 2011-09-13 17:43:02 86.134.81… TRUE                 0          0             0 FALSE                0          0         0
    #> # … with 1,532 more rows, and 69 more variables: msg_count_new <int>, msg_count_total <int>, msg_show_notification <lgl>, last_visit <dttm>, last_activity <dttm>,
    #> #   mod_posts <lgl>, auto_track <chr>, temp_ban <lgl>, mgroup_others <chr>, member_login_key_expire <dttm>, members_seo_name <chr>, members_cache <chr>,
    #> #   members_disable_pm <int>, failed_logins <chr>, members_profile_views <int>, members_pass_hash <chr>, members_pass_salt <chr>, members_bitoptions <int>,
    #> #   members_day_posts <chr>, notification_cnt <int>, posts <int>, title <chr>, time_offset <chr>, last_post <dttm>, view_sigs <lgl>, msg_count_reset <lgl>,
    #> #   dst_in_use <lgl>, login_anonymous <chr>, ignored_users <chr>, org_perm_id <chr>, member_login_key <chr>, members_auto_dst <lgl>, members_display_name <chr>,
    #> #   members_l_display_name <chr>, members_l_username <chr>, member_banned <lgl>, member_uploader <chr>, language <int>, failed_login_count <int>, pp_last_visitors <chr>,
    #> #   pp_main_photo <chr>, pp_main_width <int>, pp_main_height <int>, pp_thumb_photo <chr>, pp_thumb_width <int>, pp_thumb_height <int>, pp_setting_count_comments <lgl>,
    #> #   pp_reputation_points <int>, pp_gravatar <chr>, pp_photo_type <chr>, signature <chr>, fb_bwoptions <lgl>, tc_last_sid_import <chr>, tc_bwoptions <lgl>,
    #> #   pp_customization <chr>, timezone <chr>, pp_cover_photo <chr>, members_bitoptions2 <int>, create_menu <chr>, marked_site_read <int>, pp_cover_offset <int>,
…
  - The following lists correspond to tables whose original names are
    prefixed with `core_`, `orig_`, and `forums_`:
      - `ironmarch::im_core_dfs`
      - `ironmarch::im_orig_dfs`
      - `ironmarch::im_forums_dfs`
  - The remaining tables are stored in `ironmarch::im_other_dfs`.

The following code provides examples of accessing individual tables from
each the `im_*` lists.

``` r
im_core_dfs$core_members
```

    #> # A tibble: 1,207 x 66
    #>    member_id name  member_group_id email joined              ip_address allow_admin_mai…  skin warn_level warn_lastwarn language restrict_post bday_day bday_month
    #>        <int> <chr>           <int> <chr> <dttm>              <chr>      <list>           <int>      <int>         <int>    <int>         <int>    <int>      <int>
    #>  1         1 Алек…               4 slav… 2011-09-12 15:46:59 178.140.1… <raw [1]>            0          0             0        1             0       28          6
    #>  2     14875 Poet…              17 Gray… 2017-08-29 15:39:22 199.66.88… <raw [1]>           NA         NA             0        1             0       NA         NA
    #>  3     14918 Vale…              17 oliv… 2017-09-10 15:51:00 86.10.127… <raw [1]>           NA         NA             0        1             0       NA         NA
    #>  4     14926 cucc…              14 nigg… 2017-09-12 18:29:13 172.104.1… <raw [1]>            0          0             0        1             0        0          0
    #>  5     14921 Hier…              17 Prow… 2017-09-11 11:07:06 2600:8804… <raw [1]>           NA         NA             0        1             0       NA         NA
    #>  6         2 Phal…              13 illu… 2011-09-12 15:52:30 68.37.21.… <raw [1]>            0          0             0        1             0        0          0
    #>  7     14057 Righ               13 righ… 2017-02-20 16:13:25 46.28.53.… <raw [1]>            0          0             0        0             0        0          0
    #>  8     14040 Zaxon              14 helv… 2017-02-18 09:36:32 185.93.18… <raw [1]>            0          2             0        1             0        0          0
    #>  9     14041 Солд…              13 mrel… 2017-02-18 12:06:20 2a02:c7d:… <raw [1]>            0          0             0        1             0       NA         NA
    #> 10         3 Bloo…              13 rene… 2011-09-12 18:10:11 68.10.255… <raw [1]>            0          0             0        1             0        0          0
    #> # … with 1,197 more rows, and 52 more variables: bday_year <int>, msg_count_new <int>, msg_count_total <int>, msg_count_reset <int>, msg_show_notification <lgl>,
    #> #   last_visit <dttm>, last_activity <dttm>, mod_posts <int>, auto_track <chr>, temp_ban <int>, mgroup_others <chr>, member_login_key_expire <dttm>,
    #> #   members_seo_name <chr>, members_cache <chr>, members_disable_pm <int>, failed_logins <chr>, failed_login_count <int>, members_profile_views <int>,
    #> #   members_pass_hash <chr>, members_pass_salt <chr>, members_bitoptions <int>, members_day_posts <chr>, notification_cnt <int>, pp_last_visitors <chr>,
    #> #   pp_main_photo <chr>, pp_main_width <int>, pp_main_height <int>, pp_thumb_photo <chr>, pp_thumb_width <int>, pp_thumb_height <int>, pp_setting_count_comments <lgl>,
    #> #   pp_reputation_points <int>, pp_gravatar <chr>, pp_photo_type <chr>, signature <chr>, fb_bwoptions <lgl>, tc_last_sid_import <chr>, tc_bwoptions <lgl>,
    #> #   pp_customization <chr>, timezone <chr>, pp_cover_photo <chr>, members_bitoptions2 <int>, create_menu <chr>, marked_site_read <int>, pp_cover_offset <int>,
    #> #   acp_skin <lgl>, acp_language <lgl>, member_title <chr>, member_posts <int>, member_last_post <int>, member_streams <chr>, photo_last_update <dttm>

``` r
im_orig_dfs$orig_members
```

    #> # A tibble: 763 x 51
    #>    member_id name  member_group_id email joined              ip_address posts title allow_admin_mai… time_offset  skin warn_level warn_lastwarn last_post          
    #>        <int> <chr>           <int> <chr> <dttm>              <chr>      <int> <chr> <lgl>            <chr>       <int>      <int>         <int> <dttm>             
    #>  1         1 Alex…               4 slav… 2011-09-12 15:46:59 178.140.1…  5613 My s… FALSE            3               9          0             0 2016-03-20 19:37:40
    #>  2         2 Kacen              13 illu… 2011-09-12 15:52:30 68.37.21.…  1267 THE … TRUE             -5              0          0             0 2015-09-25 18:11:45
    #>  3         3 Bloo…              13 rene… 2011-09-12 18:10:11 68.10.255…   487 14/8… TRUE             -8              9          0             0 2015-12-04 02:23:51
    #>  4         4 Mier…              13 homi… 2011-09-12 20:27:35 82.29.169…  1704 Mult… FALSE            0               0          0             0 2016-02-29 22:56:56
    #>  5         5 Will…               5 tash… 2011-09-12 20:58:17 90.214.15…   463 A fox TRUE             0               0          0             0 2012-01-26 15:02:10
    #>  6         6 Inte…              13 mich… 2011-09-12 21:14:03 86.7.229.…     9 <NA>  TRUE             0              NA         NA             0 2013-04-09 07:13:04
    #>  7         7 Benj…               4 benj… 2011-09-13 01:22:58 81.141.31…  3127 2 Mi… TRUE             0               9          0             0 2016-02-25 01:53:44
    #>  8         8 Mr. …              13 elei… 2011-09-13 04:24:07 98.198.24…   167 <NA>  TRUE             -6              0          0             0 2012-10-30 06:52:01
    #>  9         9 Woma…               5 sol.… 2011-09-13 10:27:52 88.147.27…   997 <NA>  FALSE            1               0          0             0 2012-08-25 08:34:25
    #> 10        10 Dene…              13 8056… 2011-09-13 12:13:09 72.76.138…    96 <NA>  TRUE             -5              0          0             0 2013-04-09 04:20:54
    #> # … with 753 more rows, and 37 more variables: restrict_post <chr>, view_sigs <lgl>, bday_day <int>, bday_month <int>, bday_year <int>, msg_count_new <int>,
    #> #   msg_count_total <int>, msg_count_reset <lgl>, msg_show_notification <lgl>, last_visit <dttm>, last_activity <dttm>, dst_in_use <lgl>, mod_posts <chr>,
    #> #   auto_track <chr>, temp_ban <chr>, login_anonymous <chr>, ignored_users <chr>, mgroup_others <chr>, org_perm_id <chr>, member_login_key <chr>,
    #> #   member_login_key_expire <dttm>, members_auto_dst <lgl>, members_display_name <chr>, members_seo_name <chr>, members_cache <chr>, members_disable_pm <int>,
    #> #   members_l_display_name <chr>, members_l_username <chr>, failed_logins <chr>, members_profile_views <int>, members_pass_hash <chr>, members_pass_salt <chr>,
    #> #   member_banned <lgl>, member_uploader <chr>, members_bitoptions <int>, members_day_posts <chr>, notification_cnt <int>

``` r
im_forums_dfs$forums_posts
```

    #> # A tibble: 195,128 x 15
    #>       pid append_edit edit_time           author_id author_name ip_address post_date           post  queued topic_id new_topic edit_name post_key post_edit_reason
    #>     <int> <lgl>       <dttm>                  <int> <chr>       <chr>      <dttm>              <chr>  <int>    <int> <lgl>     <chr>     <chr>    <chr>           
    #>  1    202 FALSE       NA                          7 MoonmanKKK  81.141.31… 2011-09-15 22:08:51 "<p>…      0       47 FALSE     <NA>      89e750e… <NA>            
    #>  2    203 FALSE       NA                         16 Talleyrand  152.33.58… 2011-09-15 22:10:42 "\n<…      0       11 FALSE     <NA>      0bccae6… <NA>            
    #>  3    532 FALSE       2011-09-19 23:14:09         5 Will to Po… 90.219.24… 2011-09-19 23:13:59 "\n<…      0      107 FALSE     Will to … 58e8b72… <NA>            
    #>  4 114067 FALSE       NA                       7508 RIGHT WING… 80.212.44… 2015-05-16 18:00:29 "\n<…      0     5166 FALSE     <NA>      ac5b3c0… <NA>            
    #>  5 114068 FALSE       2015-05-16 18:07:42         0 Nihonjin M… 73.222.21… 2015-05-16 18:02:08 "<p>…      0     5166 FALSE     Nihonjin… 3eb3ae5… <NA>            
    #>  6 114069 FALSE       2015-05-16 19:12:42      7481 ¡VIVA LA R… 86.181.21… 2015-05-16 18:06:36 "\n<…      0     5165 FALSE     Generalp… a72ee7a… <NA>            
    #>  7 114070 FALSE       NA                       9144 Neizbezhno… 121.215.1… 2015-05-16 18:14:36 "<p>…      0     5165 FALSE     <NA>      e2e1256… <NA>            
    #>  8 114071 FALSE       NA                       6321 Culius Jae… 65.28.106… 2015-05-16 18:16:41 "\n<…      0     5167 TRUE      <NA>      774875f… <NA>            
    #>  9      4 FALSE       NA                          1 Alexander … 178.140.1… 2011-09-13 01:06:06 "\n<…      0        3 TRUE      <NA>      cbd8458… <NA>            
    #> 10     83 FALSE       NA                         16 Talleyrand  152.33.17… 2011-09-14 04:43:41 "\n<…      0       37 TRUE      <NA>      0bac739… <NA>            
    #> # … with 195,118 more rows, and 1 more variable: pdelete_time <dttm>
…
<img src="man/figures/use-all-the-data.jpeg" width="259" style="display: block; margin: auto;" />

### `core_*`

``` r
im_core_dfs
```

    #> $core_acp_search_index
    #> # A tibble: 1,123 x 5
    #>    url                                           app   lang_key                     restriction       keyword          
    #>    <chr>                                         <chr> <chr>                        <chr>             <chr>            
    #>  1 app=core&module=support&controller=systemLogs core  system_logs                  <NA>              sql error logs   
    #>  2 app=core&module=support&controller=systemLogs core  system_logs                  <NA>              sql logs         
    #>  3 app=core&module=support&controller=systemLogs core  system_logs                  <NA>              system logs      
    #>  4 app=core&module=support&controller=systemLogs core  system_logs                  <NA>              driver errors    
    #>  5 app=core&module=support&controller=systemLogs core  system_logs                  <NA>              logs             
    #>  6 app=core&module=support&controller=support    core  menu__core_support_dashboard support_dashboard troubleshoot     
    #>  7 app=core&module=support&controller=support    core  menu__core_support_dashboard support_dashboard support          
    #>  8 app=core&module=support&controller=support    core  menu__core_support_dashboard support_dashboard system           
    #>  9 app=core&module=support&controller=support    core  menu__core_support_dashboard support_dashboard tech support     
    #> 10 app=core&module=support&controller=support    core  menu__core_support_dashboard support_dashboard technical support
    #> # … with 1,113 more rows
    #> 
    #> $core_acronyms
    #> # A tibble: 3 x 4
    #>    a_id a_short a_long                     a_casesensitive
    #>   <int> <chr>   <chr>                      <lgl>          
    #> 1     1 GTKRWN  Gas the Kikes Race War Now FALSE          
    #> 2     2 NA      National Action            TRUE           
    #> 3     3 RWDS    Race War Death Squads      FALSE          
    #> 
    #> $core_admin_login_logs
    #> # A tibble: 23 x 4
    #>    admin_id admin_ip_address admin_time          admin_request                                                                                                            
    #>       <int> <chr>            <dttm>              <chr>                                                                                                                    
    #>  1     6119 162.158.93.88    2017-11-10 00:51:08 "{\"adsess\":\"ek3ium1343v4ipp2n97208c1s1\",\"app\":\"core\",\"module\":\"system\",\"controller\":\"login\",\"ref\":\"\"…
    #>  2     6120 162.158.93.88    2017-11-12 07:54:35 "{\"adsess\":\"ek3ium1343v4ipp2n97208c1s1\",\"app\":\"core\",\"module\":\"system\",\"controller\":\"login\",\"ref\":\"\"…
    #>  3     6124 162.158.93.88    2017-11-15 04:42:11 "{\"adsess\":\"ek3ium1343v4ipp2n97208c1s1\",\"app\":\"core\",\"module\":\"system\",\"controller\":\"login\",\"ref\":\"\"…
    #>  4     6116 162.158.91.198   2017-11-06 20:21:13 "{\"adsess\":\"ek3ium1343v4ipp2n97208c1s1\",\"app\":\"core\",\"module\":\"system\",\"controller\":\"login\",\"ref\":\"\"…
    #>  5     6117 162.158.91.198   2017-11-06 21:52:07 "{\"adsess\":\"ek3ium1343v4ipp2n97208c1s1\",\"app\":\"core\",\"module\":\"system\",\"controller\":\"login\",\"ref\":\"\"…
    #>  6     6109 162.158.91.198   2017-10-26 20:19:13 "{\"adsess\":\"ek3ium1343v4ipp2n97208c1s1\",\"app\":\"core\",\"module\":\"system\",\"controller\":\"login\",\"ref\":\"\"…
    #>  7     6121 162.158.93.88    2017-11-13 21:17:26 "{\"adsess\":\"ek3ium1343v4ipp2n97208c1s1\",\"app\":\"core\",\"module\":\"system\",\"controller\":\"login\",\"ref\":\"\"…
    #>  8     6122 162.158.93.88    2017-11-14 04:47:22 "{\"adsess\":\"ek3ium1343v4ipp2n97208c1s1\",\"app\":\"core\",\"module\":\"system\",\"controller\":\"login\",\"ref\":\"\"…
    #>  9     6125 172.68.182.89    2017-11-18 10:12:12 "{\"adsess\":\"mpiq2ka3o3o4i12vbrvdi6e5i4\",\"app\":\"core\",\"module\":\"system\",\"controller\":\"login\",\"ref\":\"\"…
    #> 10     6126 162.158.93.88    2017-11-20 20:59:00 "{\"adsess\":\"ek3ium1343v4ipp2n97208c1s1\",\"app\":\"core\",\"module\":\"system\",\"controller\":\"login\",\"ref\":\"\"…
    #> # … with 13 more rows
…
