Reconcile and Merge Members — build_members • ironmarch
…
alternative: a data.table::data.table()

If split is TRUE and summarize is FALSE, the result will be a list() of
data frames.

    Details

    Values found in im_core_dfs$core_members are preferred. Otherwise values found in
im_orig_dfs$orig_members are kept.

    Examples

# members summarized to single rows ===================================================
build_members()
#> # A tibble: 1,542 x 83
#>    member_id name  member_group_id email joined              ip_address
#>        <int> <chr>           <int> <chr> <dttm>              <chr>     
#>  1         1 Алек…               4 slav… 2011-09-12 15:46:59 178.140.1…
#>  2         2 Phal…              13 illu… 2011-09-12 15:52:30 68.37.21.…
#>  3         3 Bloo…              13 rene… 2011-09-12 18:10:11 68.10.255…
#>  4         4 Mier…              13 homi… 2011-09-12 20:27:35 82.29.169…
#>  5         5 Will…              14 tash… 2011-09-12 20:58:17 90.214.15…
#>  6         7 Dadd…              13 benj… 2011-09-13 01:22:58 81.141.31…
#>  7         8 Mr. …              13 elei… 2011-09-13 04:24:07 98.198.24…
#>  8         9 Woma…              14 sol.… 2011-09-13 10:27:52 88.147.27…
#>  9        11 Four…              13 o244… 2011-09-13 12:14:28 109.77.91…
#> 10        12 Jami…              14 jami… 2011-09-13 17:43:02 86.134.81…
#> # … with 1,532 more rows, and 77 more variables: allow_admin_mails <lgl>,
#> #   skin <int>, warn_level <int>, warn_lastwarn <int>, restrict_post <lgl>,
#> #   bday_day <int>, bday_month <int>, bday_year <int>, msg_count_new <int>,
#> #   msg_count_total <int>, msg_show_notification <lgl>, last_visit <dttm>,
#> #   last_activity <dttm>, mod_posts <lgl>, auto_track <chr>, temp_ban <lgl>,
#> #   mgroup_others <chr>, member_login_key_expire <dttm>,
#> #   members_seo_name <chr>, members_cache <chr>, members_disable_pm <int>,
#> #   failed_logins <chr>, members_profile_views <int>, members_pass_hash <chr>,
#> #   members_pass_salt <chr>, members_bitoptions <int>, members_day_posts <chr>,
…
# all member observations =============================================================
build_members(summarize = FALSE)
#> # A tibble: 1,970 x 84
#>    which_df member_id name  member_group_id email joined              ip_address
#>    <chr>        <int> <chr>           <int> <chr> <dttm>              <chr>     
#>  1 core             1 Алек…               4 slav… 2011-09-12 15:46:59 178.140.1…
#>  2 core             2 Phal…              13 illu… 2011-09-12 15:52:30 68.37.21.…
#>  3 core             3 Bloo…              13 rene… 2011-09-12 18:10:11 68.10.255…
#>  4 core             4 Mier…              13 homi… 2011-09-12 20:27:35 82.29.169…
#>  5 core             5 Will…              14 tash… 2011-09-12 20:58:17 90.214.15…
#>  6 core             7 Dadd…              13 benj… 2011-09-13 01:22:58 81.141.31…
#>  7 core             8 Mr. …              13 elei… 2011-09-13 04:24:07 98.198.24…
#>  8 core             9 Woma…              14 sol.… 2011-09-13 10:27:52 88.147.27…
#>  9 core            11 Four…              13 o244… 2011-09-13 12:14:28 109.77.91…
#> 10 core            12 Jami…              14 jami… 2011-09-13 17:43:02 86.134.81…
#> # … with 1,960 more rows, and 77 more variables: allow_admin_mails <lgl>,
#> #   skin <int>, warn_level <int>, warn_lastwarn <int>, restrict_post <lgl>,
#> #   bday_day <int>, bday_month <int>, bday_year <int>, msg_count_new <int>,
#> #   msg_count_total <int>, msg_show_notification <lgl>, last_visit <dttm>,
#> #   last_activity <dttm>, mod_posts <lgl>, auto_track <chr>, temp_ban <lgl>,
#> #   mgroup_others <chr>, member_login_key_expire <dttm>,
#> #   members_seo_name <chr>, members_cache <chr>, members_disable_pm <int>,
#> #   failed_logins <chr>, members_profile_views <int>, members_pass_hash <chr>,
#> #   members_pass_salt <chr>, members_bitoptions <int>, members_day_posts <chr>,
…
