Data compiled by third parties. — iron-march-third-party • ironmarch
…
    An object of class tbl_df (inherits from tbl, data.frame) with 112 rows and 8 columns.

    Source

Bellingcat

im_possible_mil_members

Possible Military Members (Google Sheets)

    Examples

im_possible_mil_members
#> # A tibble: 112 x 8
#>    msg_id msg_topic_id msg_date            msg_post msg_post_key msg_author_id
#>     <int>        <int> <dttm>              <chr>    <chr>                <int>
#>  1  22401         5127 2017-02-09 09:29:19 "<p>\n … 0                    13110
#>  2  22402         5127 2017-02-09 10:38:52 "<p>\n … 0                    13865
#>  3  22403         5127 2017-02-09 12:15:48 "<p>\n … 0                    13110
#>  4  22405         5127 2017-02-09 12:57:35 "<p>\n … 0                    13865
#>  5  22406         5127 2017-02-09 13:45:00 "<p>\n … 0                    13110
#>  6  22407         5127 2017-02-09 14:11:06 "<p>\n … 0                    13865
#>  7  22408         5127 2017-02-09 14:16:06 "<p>\n … 0                    13110
#>  8  22410         5127 2017-02-09 14:20:44 "<p>\n … 0                    13865
#>  9  22411         5127 2017-02-09 14:22:27 "<p>\n … 0                    13110
#> 10  22412         5127 2017-02-09 14:23:19 "<p>\n … 0                    13110
#> # … with 102 more rows, and 2 more variables: msg_ip_address <chr>,
#> #   msg_is_first_post <int>
…
