Iron March Data — iron-march-tables • ironmarch
…
im_other_dfs

    Format

    Each object is a list() of tibble::tibble()s.

    Source

    https://www.bellingcat.com/resources/how-tos/2019/11/06/massive-white-supremacist-message-board-leak-how-to-access-and-interpret-the-data/

    Examples

im_core_dfs
#> $core_acp_search_index
#> # A tibble: 1,123 x 5
#>    url                       app   lang_key           restriction    keyword    
#>    <chr>                     <chr> <chr>              <chr>          <chr>      
#>  1 app=core&module=support&… core  system_logs        NA             sql error …
#>  2 app=core&module=support&… core  system_logs        NA             sql logs   
#>  3 app=core&module=support&… core  system_logs        NA             system logs
#>  4 app=core&module=support&… core  system_logs        NA             driver err…
#>  5 app=core&module=support&… core  system_logs        NA             logs       
#>  6 app=core&module=support&… core  menu__core_suppor… support_dashb… troublesho…
#>  7 app=core&module=support&… core  menu__core_suppor… support_dashb… support    
#>  8 app=core&module=support&… core  menu__core_suppor… support_dashb… system     
#>  9 app=core&module=support&… core  menu__core_suppor… support_dashb… tech suppo…
#> 10 app=core&module=support&… core  menu__core_suppor… support_dashb… technical …
#> # … with 1,113 more rows
#> 
#> $core_acronyms
#> # A tibble: 3 x 4
#>    a_id a_short a_long                     a_casesensitive
#>   <int> <chr>   <chr>                      <lgl>          
#> 1     1 GTKRWN  Gas the Kikes Race War Now FALSE          
#> 2     2 NA      National Action            TRUE           
#> 3     3 RWDS    Race War Death Squads      FALSE          
#> 
#> $core_admin_login_logs
#> # A tibble: 23 x 4
#>    admin_id admin_ip_address admin_time          admin_request                  
#>       <int> <chr>            <dttm>              <chr>                          
#>  1     6119 162.158.93.88    2017-11-10 00:51:08 "{\"adsess\":\"ek3ium1343v4ipp…
#>  2     6120 162.158.93.88    2017-11-12 07:54:35 "{\"adsess\":\"ek3ium1343v4ipp…
#>  3     6124 162.158.93.88    2017-11-15 04:42:11 "{\"adsess\":\"ek3ium1343v4ipp…
#>  4     6116 162.158.91.198   2017-11-06 20:21:13 "{\"adsess\":\"ek3ium1343v4ipp…
#>  5     6117 162.158.91.198   2017-11-06 21:52:07 "{\"adsess\":\"ek3ium1343v4ipp…
#>  6     6109 162.158.91.198   2017-10-26 20:19:13 "{\"adsess\":\"ek3ium1343v4ipp…
#>  7     6121 162.158.93.88    2017-11-13 21:17:26 "{\"adsess\":\"ek3ium1343v4ipp…
#>  8     6122 162.158.93.88    2017-11-14 04:47:22 "{\"adsess\":\"ek3ium1343v4ipp…
#>  9     6125 172.68.182.89    2017-11-18 10:12:12 "{\"adsess\":\"mpiq2ka3o3o4i12…
#> 10     6126 162.158.93.88    2017-11-20 20:59:00 "{\"adsess\":\"ek3ium1343v4ipp…
#> # … with 13 more rows
#> 
#> $core_admin_logs
#> # A tibble: 14,595 x 11
#>             id member_id ctime               note  ip_address appcomponent
#>          <dbl>     <int> <dttm>              <chr> <chr>      <chr>       
#>  1 Inf.Nae-324         1 2011-09-12 16:05:48 Cate… 178.140.1… forums      
#>  2 Inf.Nae-324         1 2011-09-12 16:07:59 Foru… 178.140.1… forums      
#>  3   1.50e-323         1 2011-09-12 16:08:15 Foru… 178.140.1… forums      
#>  4   2.00e-323         1 2011-09-12 16:11:38 Foru… 178.140.1… forums      
#>  5   2.50e-323         1 2011-09-12 16:15:13 Edit… 178.140.1… members     
#>  6   3.00e-323         1 2011-09-12 16:15:53 Edit… 178.140.1… members     
#>  7   3.50e-323         1 2011-09-12 16:16:06 Edit… 178.140.1… members     
#>  8   4.00e-323         1 2011-09-12 16:16:28 Edit… 178.140.1… members     
#>  9   4.50e-323         1 2011-09-12 16:20:31 Adde… 178.140.1… members     
#> 10   5.00e-323         1 2011-09-12 17:54:03 Foru… 178.140.1… forums      
#> # … with 14,585 more rows, and 5 more variables: module <chr>,
#> #   controller <chr>, do <chr>, lang_key <chr>, member_name <chr>
#> 
#> $core_applications
#> # A tibble: 3 x 10
#>   app_id app_description app_directory app_added           app_position
#>    <int> <chr>           <chr>         <dttm>                     <int>
#> 1      1 Manage global … core          2011-09-12 15:47:14            1
#> 2      3 Manage forums … forums        2011-09-12 15:47:19            3
#> 3      4 NA              calendar      2015-05-12 14:21:25            4
#> # … with 5 more variables: app_protected <lgl>, app_location <chr>,
#> #   app_update_last_check <int>, app_update_version <chr>, app_default <lgl>
#> 
#> $core_attachments
#> # A tibble: 101 x 12
#>    attach_id attach_ext attach_file attach_location attach_thumb_lo…
#>        <int> <chr>      <chr>       <chr>           <chr>           
#>  1       338 jpg        461022_456… monthly_03_201… monthly_03_2013…
#>  2         2 jpg        1056.jpg    monthly_09_201… monthly_09_2011…
#>  3         3 jpg        1057.jpg    monthly_09_201… monthly_09_2011…
#>  4         4 jpg        1091.jpg    monthly_09_201… monthly_09_2011…
#>  5         5 jpg        1108.jpg    monthly_09_201… monthly_09_2011…
#>  6         6 jpg        FASCIST UN… monthly_09_201… monthly_09_2011…
#>  7         7 jpg        post-2711-… monthly_09_201… monthly_09_2011…
#>  8         8 jpg        post-2842-… monthly_09_201… monthly_09_2011…
#>  9         9 jpg        1029.jpg    monthly_09_201… monthly_09_2011…
#> 10        10 jpg        1030.jpg    monthly_09_201… monthly_09_2011…
#> # … with 91 more rows, and 7 more variables: attach_is_image <lgl>,
#> #   attach_hits <int>, attach_date <dttm>, attach_member_id <int>,
#> #   attach_filesize <int>, attach_img_width <int>, attach_img_height <int>
#> 
#> $core_attachments_map
#> # A tibble: 101 x 3
#>    attachment_id       id1       id2
#>            <int>     <dbl>     <dbl>
#>  1             2 2.35e-322 1.01e-321
#>  2             3 2.35e-322 1.01e-321
#>  3             4 2.35e-322 1.01e-321
#>  4             5 2.35e-322 1.01e-321
#>  5             6 2.35e-322 1.01e-321
#>  6             7 2.35e-322 1.01e-321
#>  7             8 2.35e-322 1.01e-321
#>  8             9 2.35e-322 1.01e-321
#>  9            10 2.35e-322 1.01e-321
#> 10            11 2.35e-322 1.01e-321
#> # … with 91 more rows
#> 
#> $core_banfilters
#> # A tibble: 52 x 5
#>    ban_id ban_type ban_content            ban_date            ban_reason        
#>     <int> <chr>    <chr>                  <dttm>              <chr>             
#>  1      1 ip       62.97.238.198          2011-09-18 13:48:53 Tribbles          
#>  2      2 ip       80.202.110.65          2011-09-18 13:49:39 Also Tribbles     
#>  3      3 email    jacksonhaddress@hotma… 2011-10-06 16:15:37 NA                
#>  4      4 ip       65.19.38.199           2011-10-06 16:15:37 NA                
#>  5      5 ip       75.173.64.190          2011-10-06 16:15:37 NA                
#>  6      6 email    a6428490@nepwk.com     2011-10-07 15:03:48 NA                
#>  7      7 name     JackW2                 2011-10-07 15:03:48 NA                
#>  8      8 ip       173.236.27.154         2011-10-07 15:03:48 NA                
#>  9      9 ip       80.82.69.119           2011-10-07 15:03:48 NA                
#> 10     10 ip       115.249.239.138        2011-12-19 10:52:08 Spammer - commerc…
#> # … with 42 more rows
#> 
#> $core_cache
#> # A tibble: 171 x 3
#>    cache_key                cache_value                             cache_expire
#>    <chr>                    <chr>                                          <int>
#>  1 embed_e4cab4adff065e1c4… "\"<div id=\\\"fb-root\\\"><\\/div>\\n…   1511322224
#>  2 embed_6b4bb904504f9db82… "\"<blockquote class=\\\"instagram-med…   1511313994
#>  3 page_5b6871451314a763e2… "{\"output\":\"\\n<!DOCTYPE html>\\n<h…   1511237711
#>  4 page_0520ce0fd94d072691… "{\"output\":\"\\n<!DOCTYPE html>\\n<h…   1511237756
#>  5 page_8b0b82300d1957b4f8… "{\"output\":\"\\n<!DOCTYPE html>\\n<h…   1511237760
#>  6 page_1471b8a5e4fb244e7a… "{\"output\":\"\\n<!DOCTYPE html>\\n<h…   1511237768
#>  7 page_77fa5a9b770109ce88… "{\"output\":\"\\n<!DOCTYPE html>\\n<h…   1511237749
#>  8 page_cd26222ed1107a2710… "{\"output\":\"\\n<!DOCTYPE html>\\n<h…   1511237755
#>  9 page_cee4024758e5a03f7d… "{\"output\":\"\\n<!DOCTYPE html>\\n<h…   1511237745
#> 10 page_8129275e64c9925d82… "{\"output\":\"\\n<!DOCTYPE html>\\n<h…   1511237734
#> # … with 161 more rows
…
#>  6 6.15e-322        1.02e-318 IRONMARCH IN TH… ironmarch-in-th…      Inf.Nae-324
#>  7 6.20e-322        1.02e-318 IRONMARCH IN TH… ironmarch-in-th…      Inf.Nae-324
#>  8 6.25e-322        1.02e-318 IRONMARCH IN TH… ironmarch-in-th…      Inf.Nae-324
#>  9 6.30e-322        1.02e-318 IRONMARCH IN TH… ironmarch-in-th…      Inf.Nae-324
#> 10 6.35e-322        1.02e-318 IRONMARCH IN TH… ironmarch-in-th…      Inf.Nae-324
#> 11 6.40e-322        1.02e-318 IRONMARCH IN TH… ironmarch-in-th…      Inf.Nae-324
#> 12 6.45e-322        1.02e-318 Unofficial AR p… unofficial-ar-p…      Inf.Nae-324
#> 13 6.50e-322        8.77e-319 Trivial HAPPENI… trivial-happeni…        4.62e-320
#> 14 6.55e-322        8.70e-319 Trivial HAPPENI… trivial-happeni…        4.62e-320
#> # … with 4 more variables: dellog_deleted_by_name <chr>,
#> #   dellog_deleted_date <dttm>, dellog_deleted_by_seo_name <chr>,
#> #   dellog_content_permissions <chr>
#> 
#> $core_email_templates
#> # A tibble: 50 x 7
#>    template_id template_app template_name template_data template_conten…
#>          <dbl> <chr>        <chr>         <chr>         <chr>           
#>  1   8.40e-322 core         account_lock… $member, $lo… "<br />\n{$emai…
#>  2   8.45e-322 core         unsubscribeD… $member, $em… "<tr>\n\t<td di…
#>  3   8.50e-322 core         digests__are… $output, $ap… "<!-- Add item …
#>  4   8.55e-322 core         upgrade       $version, $r… "\n{$email->lan…
#>  5   8.60e-322 core         notification… $club, $memb… "<br />\n{$emai…
#>  6   8.65e-322 core         notification… $comment, $m… "\n{{$item = ( …
#>  7   8.70e-322 core         email_addres… $member, $ol… "\n{$email->lan…
#>  8   8.75e-322 core         notification… $container, … "\n{{if $member…
#>  9   8.80e-322 core         contact_form  $member, $na… "{$email->langu…
#> 10   8.85e-322 core         notification… $comment, $e… "\n{$email->lan…
#> # … with 40 more rows, and 2 more variables: template_content_plaintext <chr>,
#> #   template_key <chr>
#> 
#> $core_emoticons
#> # A tibble: 116 x 7
#>       id typed   image      clickable emo_set      emo_position emo_set_position
#>    <int> <chr>   <chr>      <lgl>     <chr>               <int>            <int>
#>  1   110 :berg:  emoticons… TRUE      84ba4fa006a…            4                8
#>  2   109 :derp:  emoticons… TRUE      84ba4fa006a…           14                8
#>  3   108 :uwot:  emoticons… TRUE      84ba4fa006a…           13                8
#>  4   107 :srsly: emoticons… TRUE      84ba4fa006a…           10                8
#>  5   106 :gibsm… emoticons… TRUE      84ba4fa006a…           12                8
#>  6   105 :wat:   emoticons… TRUE      f700487c16e…            2                6
#>  7   104 :handy: emoticons… TRUE      f700487c16e…           24                6
#>  8   174 :arrow… emoticons… TRUE      f539dc6131b…            6                3
#>  9   171 :ropec… emoticons… TRUE      ebad4264c1c…            9                1
#> 10   101 :moonm… emoticons… TRUE      f700487c16e…           20                6
#> # … with 106 more rows
#> 
#> $core_file_logs
#> # A tibble: 2,014 x 7
#>       log_id log_filename log_msg log_date            log_data log_container
#>        <dbl> <chr>        <chr>   <dttm>              <chr>    <chr>        
#>  1 4.10e-320 NA           contai… 2017-09-13 14:20:17 "{\"ads… css_built_7  
#>  2 4.32e-320 1200px-Brit… file_d… 2017-09-29 02:40:02  NA      monthly_2017…
#>  3 4.32e-320 1200px-Flag… file_d… 2017-09-29 02:40:04  NA      monthly_2017…
#>  4 4.39e-320 root_map.js… file_d… 2017-10-04 22:02:56  NA      javascript_g…
#>  5 4.39e-320 root_map.js… file_d… 2017-10-04 22:02:56  NA      javascript_g…
#>  6 4.39e-320 root_map.js… file_d… 2017-10-04 22:02:56  NA      javascript_g…
#>  7 4.39e-320 root_map.js… file_d… 2017-10-04 22:03:00  NA      javascript_g…
#>  8 4.45e-320 Screenshot_… file_d… 2017-10-09 21:33:08  NA      monthly_2017…
#>  9 4.45e-320 Screenshot_… file_d… 2017-10-09 21:33:08  NA      monthly_2017…
#> 10 4.45e-320 integra.png… file_d… 2017-10-09 21:34:21  NA      monthly_2017…
#> # … with 2,004 more rows, and 1 more variable: log_url <chr>
#> 
#> $core_follow
#> # A tibble: 8,066 x 13
#>    follow_id follow_app follow_area follow_rel_id follow_member_id
#>    <chr>     <chr>      <chr>               <dbl>            <int>
#>  1 fd493920… forums     topic           1.80e-322               12
#>  2 1b179c39… forums     topic           3.10e-322               12
#>  3 af062e78… forums     topic           2.35e-322               12
#>  4 bbf8f01f… forums     topic           2.20e-322               12
#>  5 b85184ca… forums     topic           3.25e-322               12
#>  6 e7328cad… forums     topic           3.70e-322               12
#>  7 625eb2d4… forums     topic           3.75e-322               12
#>  8 a87febdf… forums     topic           3.65e-322               12
#>  9 e5f6841c… forums     topic           2.25e-322               12
#> 10 6f7a3413… forums     topic           3.90e-322               12
#> # … with 8,056 more rows, and 8 more variables: follow_is_anon <lgl>,
#> #   follow_added <dttm>, follow_notify_do <lgl>, follow_notify_meta <chr>,
#> #   follow_notify_freq <chr>, follow_notify_sent <dttm>, follow_visible <lgl>,
#> #   follow_index_id <dbl>
…
#> # A tibble: 8 x 7
#>   hook_file_id hook_hook_id hook_file_stored hook_file_real hook_classname
#>          <int>        <int> <chr>            <chr>          <chr>         
#> 1           39            1 boardIndexSideB… boardIndexSid… boardIndexSid…
#> 2           43            2 boardIndexStatu… boardIndexSta… boardIndexSta…
#> 3           40            3 boardIndexRecen… boardIndexRec… boardIndexRec…
#> 4           41            4 boardIndexFaceb… boardIndexFac… boardIndexFac…
#> 5           42            5 boardIndexTags_… boardIndexTag… boardIndexTags
#> 6           44            9 boardIndexCalen… boardIndexCal… boardIndexCal…
#> 7           45           10 calendarUpcomin… calendarUpcom… calendarUpcom…
#> 8           46           11 calendarUpcomin… calendarUpcom… calendarUpcom…
#> # … with 2 more variables: hook_data <chr>, hooks_source <chr>
#> 
#> $core_ignored_users
#> # A tibble: 22 x 6
#>    ignore_id ignore_owner_id ignore_ignore_id ignore_messages ignore_topics
#>        <int>           <int>            <int> <lgl>           <lgl>        
#>  1         2             143               84 FALSE           FALSE        
#>  2        31           13558               72 FALSE           FALSE        
#>  3         4             255              279 FALSE           FALSE        
#>  4        32           14399             6260 TRUE            TRUE         
#>  5         7             991             1109 FALSE           FALSE        
#>  6         8             288               91 FALSE           FALSE        
#>  7        11              54             6113 FALSE           FALSE        
#>  8        13            7364              132 FALSE           FALSE        
#>  9        15            7901             7508 TRUE            TRUE         
#> 10        17            7643             7481 FALSE           FALSE        
#> # … with 12 more rows, and 1 more variable: ignore_mentions <lgl>
#> 
#> $core_item_markers
#> # A tibble: 32,032 x 6
#>    item_key item_member_id item_app item_read_array item_global_res…
#>    <chr>             <int> <chr>    <chr>                      <int>
#>  1 a0a92a5…              1 forums   "[]"                  1511237486
#>  2 400d1e9…              1 forums   "[]"                  1507271991
#>  3 06a3790…              1 forums   "[]"                  1510886634
#>  4 1aefba1…              1 forums   "[]"                  1511095618
#>  5 1589e34…              1 calendar "{\"69\":14591…       1459164193
#>  6 6229be0…              1 forums   "[]"                  1511211533
#>  7 b360186…              1 forums   "[]"                  1511211533
#>  8 7972acd…              1 forums   "[]"                  1511211533
#>  9 ba0737a…              1 forums   "[]"                  1511200946
#> 10 dabd5bf…            132 forums   "[]"                  1458909380
#> # … with 32,022 more rows, and 1 more variable: item_app_key_1 <int>
#> 
#> $core_javascript
#> # A tibble: 251 x 8
#>    javascript_id javascript_type javascript_cont… javascript_app javascript_path
#>            <int> <chr>           <chr>            <chr>          <chr>          
#>  1          1121 framework       "/*\n * transfo… global         jquery         
#>  2          1122 framework       "/* jstz.min.js… global         jstz           
#>  3          1123 framework       "\"use strict\"… global         linkify        
#>  4          1124 framework       "!function(){\"… global         linkify        
#>  5          1125 mixins          "/**\n * Invisi… core           mixins         
#>  6          1126 mixins          "/**\n * Invisi… global         mixins         
#>  7          1127 mixins          "/**\n * Invisi… global         mixins         
#>  8          1128 model           "/**\n * Invisi… global         models/core    
#>  9          1129 model           "/**\n * Invisi… core           models/messages
#> 10          1130 model           "/**\n * Invisi… core           models/messages
#> # … with 241 more rows, and 3 more variables: javascript_location <chr>,
#> #   javascript_position <int>, javascript_name <chr>
#> 
#> $core_leaders
#> # A tibble: 3 x 2
#>     leader_id leader_type_id
#>         <dbl>          <int>
#> 1 Inf.Nae-324              4
#> 2 Inf.Nae-324              6
#> 3   1.50e-323             10
#> 
#> $core_like_cache
#> # A tibble: 5,304 x 6
#>    like_cache_id like_cache_app like_cache_area like_cache_rel_… like_cache_data
#>    <chr>         <chr>          <chr>                      <dbl> <chr>          
#>  1 321571a7b843… forums         forums                 1.50e-322 "a:3:{s:7:\"me…
#>  2 5b1fb15ebe04… forums         topics                 1.81e-320 "a:3:{s:7:\"me…
#>  3 4ed3d61094ba… forums         topics                 1.81e-320 "a:3:{s:7:\"me…
#>  4 b5067d6b91ca… forums         topics                 7.95e-322 "a:3:{s:7:\"me…
#>  5 81d82ffa5b6d… forums         forums                 6.50e-323 "a:3:{s:7:\"me…
#>  6 d9409ca5f0c5… forums         topics                 2.54e-320 "a:3:{s:7:\"me…
#>  7 296567d2dffd… forums         topics                 2.70e-320 "a:3:{s:7:\"me…
#>  8 6ee661dd69ab… forums         topics                 2.67e-320 "a:3:{s:7:\"me…
#>  9 98ca3d02b4a1… forums         topics                 2.60e-320 "a:3:{s:7:\"me…
#> 10 a7aac8b0f1a9… forums         topics                 1.50e-323 "a:3:{s:7:\"me…
#> # … with 5,294 more rows, and 1 more variable: like_cache_expire <int>
…
