Related Groups and People — iron-march-entities • ironmarch
…
#>  4 National Democratic Party of Germany       <chr [1]>
#>  5 Golden Dawn                                <chr [1]>
#>  6 Gromada                                    <chr [1]>
#>  7 Young Russian Socialist Avantgarde         <chr [1]>
#>  8 National Action                            <chr [1]>
#>  9 American Vanguard                          <chr [1]>
#> 10 Traditionalist Workers Party               <chr [1]>
#> 11 Silver Legion                              <chr [1]>
#> 12 Azov Battalion                             <chr [3]>
#> 13 Feuerkrieg Division                        <chr [1]>
#> 14 Generation WAR                             <chr [1]>
#> 15 Vorherrschaft Division                     <chr [1]>
#> 16 Aryan Underground                          <chr [1]>
im_personnel
#> # A tibble: 44 x 8
#>    name  real_name member_id affiliation sources aka   possible_aka was_military
#>    <chr> <chr>         <int> <list>      <list>  <lis> <chr>        <lgl>       
#>  1 TheW… Devon Ar…      9304 <chr [2]>   <chr [… <chr… NA           NA          
#>  2 Woma… NA                9 <chr [1]>   <chr [… <chr… NA           NA          
#>  3 Mr. … NA                8 <chr [1]>   <chr [… <chr… NA           NA          
#>  4 Figl… NA               37 <chr [1]>   <chr [… <chr… NA           NA          
#>  5 Алек… NA                1 <chr [1]>   <chr [… <chr… Alisher Muk… NA          
#>  6 Odin  Brandon …      7600 <chr [1]>   <chr [… <chr… NA           TRUE        
#>  7 The … David Co…      6249 <chr [1]>   <chr [… <chr… NA           TRUE        
#>  8 Arat… NA             9869 <chr [1]>   <chr [… <chr… NA           NA          
#>  9 Stea… NA            13092 <chr [1]>   <chr [… <chr… NA           NA          
#> 10 NA    Nicholas…        NA <chr [1]>   <chr [… <chr… NA           NA          
#> # … with 34 more rows
…
